{
  "id": "openclaw_skill_phone-calling",
  "description": "Make international phone calls to any country. Low per-minute rates. Pay with PayPal or UPI.",
  "inputs": {
    "task": {
      "type": "string",
      "description": "Task description or user request"
    }
  },
  "outputs": {
    "result": {
      "type": "object",
      "description": "Execution result"
    }
  },
  "procedure": [
    {
      "id": "step_0",
      "type": "subtask",
      "description": "[overview] # Ringez Phone Calling API\n\nMake affordable international phone calls from anywhere. No hidden fees, no subscriptions — just pay for the minutes you use."
    },
    {
      "id": "step_1",
      "type": "subtask",
      "description": "[What is Ringez?] Ringez is a simple, privacy-focused international calling service that lets you make phone calls to 200+ countries without complicated setups or expensive plans.\n\n**Perfect for:**\n- Calling family abroad\n- Business calls to international clients\n- AI agents making reservations or appointments\n- Quick calls without buying a calling plan\n\n---"
    },
    {
      "id": "step_2",
      "type": "subtask",
      "description": "[Quick Start Guide] ### 1. Create an Account\n\nFirst, check if your email is already registered:\n\n```http\nPOST https://ringez-api.vercel.app/api/v1/auth/check-email\nContent-Type: application/json\n\n{\"email\": \"you@example.com\"}\n```\n\n**Response:**\n- `new_user` → Continue to OTP verification\n- `existing_user` → Login with password\n\n#### For New Users: Verify with OTP\n\n**Step 1:** Request OTP\n```http\nPOST https://ringez-api.vercel.app/api/v1/auth/send-otp\nContent-Type: application/json\n\n{\"email\": \"you@example.com\"}\n```\n\n**Step 2:** Verify OTP\n```http\nPOST https://ringez-api.vercel.app/api/v1/auth/verify-otp\nContent-Type: application/json\n\n{\n  \"email\": \"you@example.com\",\n  \"otp\": \"123456\"\n}\n```\n\n**Response:**\n```json\n{\n  \"session_id\": \"sess_abc123xyz\",\n  \"user\": {\n    \"email\": \"you@example.com\",\n    \"balance_minutes\": 5\n  }\n}\n```\n\nSave the `session_id` — you will need it for all API calls.\n\n#### For Existing Users: Login\n\n```http\nPOST https://ringez-api.vercel.app/api/v1/auth/login\nContent-Type: application/json\n\n{\n  \"email\": \"you@example.com\",\n  \"password\": \"your-password\"\n}\n```\n\n---\n\n### 2. Check Your Balance\n\nSee how many minutes you have before making a call:\n\n```http\nGET https://ringez-api.vercel.app/api/v1/auth/me\nX-Session-ID: sess_abc123xyz\n```\n\n**Response:**\n```json\n{\n  \"balance_minutes\": 5,\n  \"balance_usd\": 0,\n  \"email\": \"you@example.com\"\n}\n```\n\n---\n\n### 3. Make a Phone Call\n\nUse the `idempotency_key` to prevent accidental duplicate calls:\n\n```http\nPOST https://ringez-api.vercel.app/api/v1/calls/initiate\nX-Session-ID: sess_abc123xyz\nContent-Type: application/json\n\n{\n  \"to_number\": \"+919876543210\",\n  \"idempotency_key\": \"sess_abc123xyz_1700000000000_xyz789\"\n}\n```\n\n**Response (Success):**\n```json\n{\n  \"call_id\": \"call_xyz789\",\n  \"status\": \"initiated\",\n  \"mode\": \"bridge\",\n  \"to_number\": \"+919876543210\",\n  \"from_number\": \"+17623713590\",\n  \"twilio_call_sid\": \"CAxxxxx\"\n}\n```\n\n**Response (Duplicate Call):**\n```json\n{\n  \"alreadyInitiated\": true,\n  \"callSid\": \"CAxxxxx\"\n}\n```\n\n---"
    },
    {
      "id": "step_3",
      "type": "subtask",
      "description": "[Call Modes Explained] Ringez supports two ways to make calls:\n\n### Bridge Mode (Default)\n- **How it works:** Calls your phone first, then connects you to the destination\n- **Best for:** Personal calls where you want to talk\n- **Your phone:** Will ring first\n\n### Direct Mode\n- **How it works:** Calls the destination directly\n- **Best for:** AI agents, automated calls, or when you do not want your phone to ring\n- **Your phone:** Does not ring\n\n**Force Direct Mode:**\n```http\nPOST /api/v1/calls/initiate\nX-Session-ID: sess_abc123xyz\nContent-Type: application/json\n\n{\n  \"to_number\": \"+919876543210\",\n  \"mode\": \"direct\"\n}\n```\n\n---"
    },
    {
      "id": "step_4",
      "type": "subtask",
      "description": "[Preventing Duplicate Calls] When making calls through an API, network delays or retries can accidentally create multiple calls. Use an **idempotency key** to prevent this.\n\n### What is an Idempotency Key?\n\nA unique identifier for each call attempt. If you use the same key within 5 minutes, the API returns the original call instead of creating a new one.\n\n### How to Use It\n\nGenerate a unique key for each user action:\n\n```javascript\nconst idempotencyKey = `${sessionId}_${Date.now()}_${Math.random().toString(36).substr(2, 9)}`;\n// Example: sess_abc123_1700000000000_xyz789abc\n```\n\n### Important Notes\n\n- **5-minute window:** Same key within 5 minutes returns the existing call\n- **After 5 minutes:** Same key creates a new call\n- **Generate fresh keys:** Create a new key for each button click, not for API retries\n- **Response:** If duplicate detected, you get `{alreadyInitiated: true, callSid: \"...\"}`\n\n---"
    },
    {
      "id": "step_5",
      "type": "subtask",
      "description": "[Pricing] Pay only for what you use. No monthly fees, no subscriptions.\n\n### USD Plans\n\n| Plan | Price | Minutes | Rate per Minute |\n|------|-------|---------|-----------------|\n| Starter | $5 | 30 | $0.17 |\n| Popular | $15 | 120 | $0.13 |\n| Best Value | $30 | 300 | $0.10 |\n\n### INR Plans\n\n| Plan | Price | Minutes | Rate per Minute |\n|------|-------|---------|-----------------|\n| Starter | ₹99 | 7 | ₹14/min |\n| Popular | ₹199 | 19 | ₹10/min |\n| Value | ₹499 | 60 | ₹8/min |\n| Power | ₹999 | 143 | ₹7/min |\n\n**Billing:** Rounded up to the nearest minute. A 2-minute 30-second call = 3 minutes charged.\n\n---"
    },
    {
      "id": "step_6",
      "type": "subtask",
      "description": "[Managing Active Calls] ### Check Call Status\n\nSee if your call is still ringing, connected, or completed:\n\n```http\nGET https://ringez-api.vercel.app/api/v1/calls/call_xyz789\nX-Session-ID: sess_abc123xyz\n```\n\n**Response:**\n```json\n{\n  \"call_id\": \"call_xyz789\",\n  \"status\": \"in-progress\",\n  \"duration\": 120,\n  \"estimated_cost\": {\n    \"minutes\": 2,\n    \"amount\": 0.25,\n    \"currency\": \"USD\"\n  }\n}\n```\n\n### End a Call Early\n\nHang up a call before it finishes:\n\n```http\nDELETE https://ringez-api.vercel.app/api/v1/calls/call_xyz789\nX-Session-ID: sess_abc123xyz\n```\n\n### Navigate Phone Menus (DTMF)\n\nPress numbers during a call (useful for bank menus, customer support):\n\n```http\nPOST https://ringez-api.vercel.app/api/v1/calls/call_xyz789/actions\nX-Session-ID: sess_abc123xyz\nContent-Type: application/json\n\n{\n  \"action\": \"dtmf\",\n  \"parameters\": {\n    \"digits\": \"1\"\n  }\n}\n```\n\n**Common DTMF uses:**\n- `{\"digits\": \"1\"}` — Press 1 for English\n- `{\"digits\": \"1234\"}` — Enter PIN\n- `{\"digits\": \"w\"}` — Wait 0.5 seconds\n\n---"
    },
    {
      "id": "step_7",
      "type": "subtask",
      "description": "[Call History] See your past calls:\n\n```http\nGET https://ringez-api.vercel.app/api/v1/calls?limit=10&offset=0\nX-Session-ID: sess_abc123xyz\n```\n\n**Response:**\n```json\n{\n  \"calls\": [\n    {\n      \"call_id\": \"call_abc123\",\n      \"to_number\": \"+919876543210\",\n      \"status\": \"completed\",\n      \"duration\": 300,\n      \"cost\": 0.375,\n      \"started_at\": \"2026-02-09T10:00:00Z\"\n    }\n  ],\n  \"pagination\": {\n    \"total\": 25,\n    \"has_more\": true\n  }\n}\n```\n\n---"
    },
    {
      "id": "step_8",
      "type": "subtask",
      "description": "[Use Cases] ### Personal Call to Family\n\n```\nUser: Call my mom in India\nAI: I will help you call India. First, let me check your balance...\n      You have 15 minutes available.\n      Calling +91 98765 43210 now...\n      \nAI: Your phone is ringing. Pick up and I will connect you.\n```\n\n### AI Agent Making a Reservation\n\n```\nUser: Book a table at Taj Restaurant for 7 PM\nAI: I will call Taj Restaurant for you.\n      \n      [AI uses direct mode — your phone does not ring]\n      \nAI: Calling +91 12345 67890...\n      \nAI: Hello, I would like to make a reservation for 2 people at 7 PM today.\n      \nAI: ✅ Reservation confirmed! Table for 2 at 7 PM under your name.\n```\n\n---"
    },
    {
      "id": "step_9",
      "type": "subtask",
      "description": "[Important Information] ### Free Minutes\n\nNew accounts get **5 free minutes** to test the service. These are for testing only — please add credits for regular use.\n\n### Adding Credits\n\n**This skill cannot add credits.** To add minutes:\n\n1. Visit: https://ringez.com/wallet\n2. Pay with PayPal (USD) or UPI (INR)\n3. Credits appear instantly\n\n**Why?** Payment processing requires secure browser redirects and PCI compliance that APIs cannot handle.\n\n### Low Balance Handling\n\nIf someone tries to call with insufficient balance:\n\n```\nAI: Let me check your balance...\n      \n      You have 0 minutes left. You will need to add credits first.\n      \n      💳 Add credits at: https://ringez.com/wallet\n      \n      The rates are:\n      • USA: $0.05/min\n      • India: $0.08/min\n      • UK: $0.06/min\n      \n      Come back after adding credits and I will make that call!\n```\n\n---"
    },
    {
      "id": "step_10",
      "type": "subtask",
      "description": "[API Reference Quick Reference] | Action | Method | Endpoint | Headers |\n|--------|--------|----------|---------|\n| Check Email | POST | /auth/check-email | Content-Type |\n| Send OTP | POST | /auth/send-otp | Content-Type |\n| Verify OTP | POST | /auth/verify-otp | Content-Type |\n| Login | POST | /auth/login | Content-Type |\n| Check Balance | GET | /auth/me | X-Session-ID |\n| Make Call | POST | /calls/initiate | X-Session-ID, Content-Type |\n| Call Status | GET | /calls/:call_id | X-Session-ID |\n| End Call | DELETE | /calls/:call_id | X-Session-ID |\n| Call History | GET | /calls | X-Session-ID |\n| DTMF/Actions | POST | /calls/:call_id/actions | X-Session-ID, Content-Type |\n\n---"
    },
    {
      "id": "step_11",
      "type": "subtask",
      "description": "[Support] Need help? Contact us at support@ringez.com\n\n**About Ringez:** Built by an independent creator, not a big corporation. Your support keeps the service running! 🙏"
    }
  ],
  "task_type": "general",
  "tags": [
    "agent-skill"
  ],
  "capability": [
    "phone_calling"
  ],
  "schema_version": "1.1.0",
  "source": "github:openclaw/skills",
  "metadata": {
    "original_format": "openclaw_skill",
    "license": "",
    "compatibility": "",
    "extra": {}
  },
  "_url": "https://raw.githubusercontent.com/openclaw/skills/main/skills/adisahani/phone-calling/SKILL.md"
}